fire_PA_clean
…
# select only valid points, average a and b channels for those data
(AQ_df_valid = AQ_df %>% 
  dplyr::filter(a_b_agree == "agree") %>%
  rowwise() %>% 
  mutate(pm_avg = mean(c(pm25_a,pm25_b)),
         ab_difference = pm25_a-pm25_b))

## # A tibble: 1,931,503 x 13
## # Rowwise: 
##       ID datetime            Name     Lon   Lat Location pm25_a pm25_b  temp
##    <dbl> <dttm>              <chr>  <dbl> <dbl> <chr>     <dbl>  <dbl> <dbl>
##  1  3062 2021-12-30 00:00:00 Kalmia -105.  40.0 outside       0   3.35  28.8
##  2  3062 2021-12-30 00:10:00 Kalmia -105.  40.0 outside       0  11.3   29.6
##  3  3062 2021-12-30 00:20:00 Kalmia -105.  40.0 outside       0  10.3   29.8
##  4  3062 2021-12-30 00:30:00 Kalmia -105.  40.0 outside       0   3.6   30.2
##  5  3062 2021-12-30 00:40:00 Kalmia -105.  40.0 outside       0   2.02  30.8
##  6  3062 2021-12-30 00:50:00 Kalmia -105.  40.0 outside       0   1.54  31  
##  7  3062 2021-12-30 01:00:00 Kalmia -105.  40.0 outside       0   1.10  31.6
##  8  3062 2021-12-30 01:10:00 Kalmia -105.  40.0 outside       0   1.35  32  
##  9  3062 2021-12-30 01:20:00 Kalmia -105.  40.0 outside       0   1.96  32  
## 10  3062 2021-12-30 01:30:00 Kalmia -105.  40.0 outside       0   1.69  32  
## # ... with 1,931,493 more rows, and 4 more variables: rh <dbl>,
## #   a_b_agree <chr>, pm_avg <dbl>, ab_difference <dbl>
…
##   count_A_na count_B_na pct_A_na pct_B_na
## 1     179497    1104601 5.911558 36.37895

# overall percent valid
AQ_df %>% group_by(ID) %>% summarise(pct_valid = sum(a_b_agree == "agree")/length(pm25_a) * 100)

##   pct_valid
## 1  63.61216

# average difference between A and B channels for each sensor
# typically good agreement between the A and B channels..
AQ_df_valid %>% group_by(ID) %>% dplyr::summarise(ab_diff_summary = format(mean(ab_difference),scientific=FALSE))

## # A tibble: 144 x 2
##       ID ab_diff_summary
##    <dbl> <chr>          
##  1  3062 -4.248457      
##  2  4583 0.05248251     
##  3  4643 0.9130329      
##  4 15663 -0.6282127     
##  5 27120 -83.5743       
##  6 30743 4.202471       
##  7 33109 -0.3160719     
##  8 38623 5.382559       
##  9 45325 0.3868267      
## 10 50133 -0.02914227    
## # ... with 134 more rows
…
* High Concentration
PAcf_atm > 229 g/m3    
PM2.5 = 0.69 x (PAcf_atm) + 8.84 x 10^(-4) x PAcf_atm^2 + 2.97

# linear piecewise correction from the EPA
## question about using the pm avg or just the a channel
## confirm that this is the best correction
(corrected_AQ = AQ_df_valid %>% 
   rowwise() %>% 
   mutate(
  corrected_pm = ifelse(pm_avg < 50, ((0.52 * pm_avg) - (0.088 * rh) + 5.75),
                        ifelse(pm_avg >= 50 | pm_avg < 299, ((0.786 * pm_avg) - (0.086 * rh) + 5.75),
                               ifelse(pm_avg >= 229, ((0.69 * pm_avg) + 8.84 * (0.001 * pm_avg^2) + 2.97), NA)))))

## # A tibble: 1,931,503 x 14
## # Rowwise: 
##       ID datetime            Name     Lon   Lat Location pm25_a pm25_b  temp
##    <dbl> <dttm>              <chr>  <dbl> <dbl> <chr>     <dbl>  <dbl> <dbl>
##  1  3062 2021-12-30 00:00:00 Kalmia -105.  40.0 outside       0   3.35  28.8
##  2  3062 2021-12-30 00:10:00 Kalmia -105.  40.0 outside       0  11.3   29.6
##  3  3062 2021-12-30 00:20:00 Kalmia -105.  40.0 outside       0  10.3   29.8
##  4  3062 2021-12-30 00:30:00 Kalmia -105.  40.0 outside       0   3.6   30.2
##  5  3062 2021-12-30 00:40:00 Kalmia -105.  40.0 outside       0   2.02  30.8
##  6  3062 2021-12-30 00:50:00 Kalmia -105.  40.0 outside       0   1.54  31  
##  7  3062 2021-12-30 01:00:00 Kalmia -105.  40.0 outside       0   1.10  31.6
##  8  3062 2021-12-30 01:10:00 Kalmia -105.  40.0 outside       0   1.35  32  
##  9  3062 2021-12-30 01:20:00 Kalmia -105.  40.0 outside       0   1.96  32  
## 10  3062 2021-12-30 01:30:00 Kalmia -105.  40.0 outside       0   1.69  32  
## # ... with 1,931,493 more rows, and 5 more variables: rh <dbl>,
## #   a_b_agree <chr>, pm_avg <dbl>, ab_difference <dbl>, corrected_pm <dbl>

# STATS
# summary stats -- AB difference (for corrected channels)
## this could be helpful in determining whether the step of removing observations in cleaning is important
summary(corrected_AQ$ab_difference)

##      Min.   1st Qu.    Median      Mean   3rd Qu.      Max. 
## -3537.164    -0.122     0.000    28.034     0.174  4994.582

# mean difference between A and B channels per sensor
(mean_sensor_AB_diff = corrected_AQ %>% group_by(ID) %>% dplyr::summarise(mean_ab_diff = mean(ab_difference)))

## # A tibble: 144 x 2
##       ID mean_ab_diff
##    <dbl>        <dbl>
##  1  3062      -4.25  
##  2  4583       0.0525
##  3  4643       0.913 
##  4 15663      -0.628 
##  5 27120     -83.6   
##  6 30743       4.20  
##  7 33109      -0.316 
##  8 38623       5.38  
##  9 45325       0.387 
## 10 50133      -0.0291
## # ... with 134 more rows
…
# STATS
# summary stats -- corrected pm
# weird that this contains negatives.. the EPA info doesn't mention anything about that
summary(corrected_AQ$corrected_pm)

##    Min. 1st Qu.  Median    Mean 3rd Qu.    Max.    NA's 
##   -2.02    3.26    4.17   18.63    5.37 1978.12   34274

# mean corrected PM
(mean_AQ = corrected_AQ %>% group_by(ID) %>% dplyr::summarise(mean_pm = mean(corrected_pm)))

## # A tibble: 144 x 2
##       ID mean_pm
##    <dbl>   <dbl>
##  1  3062    3.88
##  2  4583    6.40
##  3  4643    6.15
##  4 15663   NA   
##  5 27120   34.0 
##  6 30743    5.33
##  7 33109    4.79
##  8 38623    4.50
##  9 45325    5.73
## 10 50133    4.69
## # ... with 134 more rows
…
